<svg xmlns="http://www.w3.org/2000/svg" width="44.209" height="44.209" viewBox="0 0 44.209 44.209">
  <g id="Group_6" data-name="Group 6" transform="translate(-335 -335)">
    <circle id="Ellipse_2" data-name="Ellipse 2" cx="21.104" cy="21.104" r="21.104" transform="translate(336 336)" fill="none" stroke="#ff4700" stroke-linecap="square" stroke-miterlimit="10" stroke-width="2"/>
    <path id="Path_7" data-name="Path 7" d="M367.743,346.542,353.68,360.606l-7.657-7.657-4.375,4.375,12.032,12.032,18.439-18.439Z" fill="none" stroke="#ff4700" stroke-linecap="square" stroke-miterlimit="10" stroke-width="2"/>
  </g>
</svg>
